PLaywData: Assignment - VAST Challenge 2021
…
Inner join for both Datasets. Based on date, location and price for inner join. Thereafter, compute the number of distinct count between a credit-loyalty pair. If respective credit and loyalty cards has more than one distinct pair, imply the credit card owner could be using numerous loyalty cards or vice verse. It note that inner join has 1087 observations, 403 and 305 less than credit and loyalty card transaction respectively. This could imply that individual could only transact with one card due to some reasons. When determine the unique count on both cards and location, it was determined that the unique count for credit and loyalty card remained no change. This imply all possible relationship between both card should be captured within the inner join. On location, the inner join has 2 location less than the credit card transaction, namely, Korons Mart and Daily Dealz. This implied that at any onetime, only one card has been used in those places.

ijoin <- credit %>%
  inner_join(loyalty,by=c('date', 'location','price')) %>%
  group_by(last4ccnum) %>%
  mutate(ndist = n_distinct(loyaltynum)) %>%
  ungroup() %>%
  group_by(loyaltynum) %>%
  mutate(ndist = if_else(ndist==1,n_distinct(last4ccnum), ndist)) %>%
  ungroup()

ijoin

# A tibble: 1,087 x 10
   last4ccnum timestamp           date     day    hr location    price
   <fct>      <dttm>              <chr>  <dbl> <dbl> <chr>       <dbl>
 1 1286       2014-01-06 08:16:00 1/6/14     6     8 Brew've Be 15.0 
 2 1286       2014-01-06 13:27:00 1/6/14     6    13 Abila Zach 50.1 
 3 1286       2014-01-07 07:54:00 1/7/14     7     7 Brew've Be 11.9 
 4 1286       2014-01-07 13:24:00 1/7/14     7    13 Kalami Kaf 45.0 
 5 1286       2014-01-08 08:16:00 1/8/14     8     8 Brew've Be  7.26
 6 1286       2014-01-08 13:38:00 1/8/14     8    13 Gelatogalo 50.4 
 7 1286       2014-01-08 20:12:00 1/8/14     8    20 Ouzeri Eli 62.2 
 8 1286       2014-01-09 08:14:00 1/9/14     9     8 Brew've Be 17.6 
 9 1286       2014-01-09 13:47:00 1/9/14     9    13 Abila Zach 48.4 
10 1286       2014-01-09 20:24:00 1/9/14     9    20 Guy's Gyros 18.3 
#  with 1,077 more rows, and 3 more variables: wkday <ord>,
#   loyaltynum <fct>, ndist <int>
…
