…
<div class="layout-chunk" data-layout="l-body">
<div class="sourceCode"><pre class="sourceCode r"><code class="sourceCode r"><span class='va'>ijoin</span> <span class='op'>&lt;-</span> <span class='va'>credit</span> <span class='op'>%&gt;%</span>
  <span class='fu'>inner_join</span><span class='op'>(</span><span class='va'>loyalty</span>,by<span class='op'>=</span><span class='fu'><a href='https://rdrr.io/r/base/c.html'>c</a></span><span class='op'>(</span><span class='st'>'date'</span>, <span class='st'>'location'</span>,<span class='st'>'price'</span><span class='op'>)</span><span class='op'>)</span> <span class='op'>%&gt;%</span>
  <span class='fu'>group_by</span><span class='op'>(</span><span class='va'>last4ccnum</span><span class='op'>)</span> <span class='op'>%&gt;%</span>
  <span class='fu'>mutate</span><span class='op'>(</span>ndist <span class='op'>=</span> <span class='fu'>n_distinct</span><span class='op'>(</span><span class='va'>loyaltynum</span><span class='op'>)</span><span class='op'>)</span> <span class='op'>%&gt;%</span>
  <span class='fu'>ungroup</span><span class='op'>(</span><span class='op'>)</span> <span class='op'>%&gt;%</span>
  <span class='fu'>group_by</span><span class='op'>(</span><span class='va'>loyaltynum</span><span class='op'>)</span> <span class='op'>%&gt;%</span>
  <span class='fu'>mutate</span><span class='op'>(</span>ndist <span class='op'>=</span> <span class='fu'>if_else</span><span class='op'>(</span><span class='va'>ndist</span><span class='op'>==</span><span class='fl'>1</span>,<span class='fu'>n_distinct</span><span class='op'>(</span><span class='va'>last4ccnum</span><span class='op'>)</span>, <span class='va'>ndist</span><span class='op'>)</span><span class='op'>)</span> <span class='op'>%&gt;%</span>
  <span class='fu'>ungroup</span><span class='op'>(</span><span class='op'>)</span>

<span class='va'>ijoin</span>
</code></pre></div>

```
# A tibble: 1,087 x 10
   last4ccnum timestamp           date     day    hr location    price
   <fct>      <dttm>              <chr>  <dbl> <dbl> <chr>       <dbl>
 1 1286       2014-01-06 08:16:00 1/6/14     6     8 Brew've Be… 15.0 
 2 1286       2014-01-06 13:27:00 1/6/14     6    13 Abila Zach… 50.1 
 3 1286       2014-01-07 07:54:00 1/7/14     7     7 Brew've Be… 11.9 
 4 1286       2014-01-07 13:24:00 1/7/14     7    13 Kalami Kaf… 45.0 
 5 1286       2014-01-08 08:16:00 1/8/14     8     8 Brew've Be…  7.26
 6 1286       2014-01-08 13:38:00 1/8/14     8    13 Gelatogalo… 50.4 
 7 1286       2014-01-08 20:12:00 1/8/14     8    20 Ouzeri Eli… 62.2 
 8 1286       2014-01-09 08:14:00 1/9/14     9     8 Brew've Be… 17.6 
 9 1286       2014-01-09 13:47:00 1/9/14     9    13 Abila Zach… 48.4 
10 1286       2014-01-09 20:24:00 1/9/14     9    20 Guy's Gyros 18.3 
# … with 1,077 more rows, and 3 more variables: wkday <ord>,
#   loyaltynum <fct>, ndist <int>
```
…
