Assignment - VAST Challenge 2021
…
ijoin <- credit %>%
  inner_join(loyalty,by=c('date','location','price')) %>%
  group_by(last4ccnum) %>%
  mutate(ndist = n_distinct(loyaltynum)) %>%
  ungroup() %>%
  group_by(loyaltynum) %>%
  mutate(ndist = if_else(ndist==1,n_distinct(last4ccnum), ndist)) %>%
  ungroup()

ijoin

# A tibble: 1,087 x 10
   timestamp           date         day    hr location           price
   <dttm>              <date>     <dbl> <dbl> <chr>              <dbl>
 1 2014-01-06 08:16:00 2014-01-06     6     8 Brew've Been Serv 15.0 
 2 2014-01-06 13:27:00 2014-01-06     6    13 Abila Zacharo      50.1 
 3 2014-01-07 07:54:00 2014-01-07     7     7 Brew've Been Serv 11.9 
 4 2014-01-07 13:24:00 2014-01-07     7    13 Kalami Kafenion    45.0 
 5 2014-01-08 08:16:00 2014-01-08     8     8 Brew've Been Serv  7.26
 6 2014-01-08 13:38:00 2014-01-08     8    13 Gelatogalore       50.4 
 7 2014-01-08 20:12:00 2014-01-08     8    20 Ouzeri Elian       62.2 
 8 2014-01-09 08:14:00 2014-01-09     9     8 Brew've Been Serv 17.6 
 9 2014-01-09 13:47:00 2014-01-09     9    13 Abila Zacharo      48.4 
10 2014-01-09 20:24:00 2014-01-09     9    20 Guy's Gyros        18.3 
#  with 1,077 more rows, and 4 more variables: last4ccnum <chr>,
#   wkday <ord>, loyaltynum <chr>, ndist <int>
…
